module bitcask-go

go 1.16

require (
	github.com/abcum/lcp v0.0.0-20201209214815-7a3f3840be81
	github.com/gofrs/flock v0.8.0
	github.com/pkg/errors v0.9.1
	github.com/plar/go-adaptive-radix-tree v1.0.4
	github.com/sirupsen/logrus v1.8.1
	github.com/spf13/cobra v0.0.7
	github.com/spf13/pflag v1.0.5
	github.com/spf13/viper v1.8.1
	github.com/stretchr/objx v0.2.0 // indirect
	github.com/stretchr/testify v1.7.0
	github.com/tidwall/redcon v1.4.1
	golang.org/x/exp v0.0.0-20200228211341-fcea875c7e85
)
